Projekt zaliczeniowy- analiza filmów (EDA)
…
Wyświetlam tylko te “przydatniejsze” zmienne.

analiza<-movies |>
  select(title, genres, revenue, budget, vote_average, vote_count)

analiza

## # A tibble: 4,803 × 6
##    title                           genres revenue budget vote_average vote_count
##    <chr>                           <chr>    <dbl>  <dbl>        <dbl>      <dbl>
##  1 Avatar                          Actio…  2.79e9 2.37e8          7.2      11800
##  2 Pirates of the Caribbean: At W… Adven…  9.61e8 3   e8          6.9       4500
##  3 Spectre                         Actio…  8.81e8 2.45e8          6.3       4466
##  4 The Dark Knight Rises           Actio…  1.08e9 2.5 e8          7.6       9106
##  5 John Carter                     Actio…  2.84e8 2.6 e8          6.1       2124
##  6 Spider-Man 3                    Fanta…  8.91e8 2.58e8          5.9       3576
##  7 Tangled                         Anima…  5.92e8 2.6 e8          7.4       3330
##  8 Avengers: Age of Ultron         Actio…  1.41e9 2.8 e8          7.3       6767
##  9 Harry Potter and the Half-Bloo… Adven…  9.34e8 2.5 e8          7.4       5293
## 10 Batman v Superman: Dawn of Jus… Actio…  8.73e8 2.5 e8          5.7       7004
## # ℹ 4,793 more rows
…
